<svg xmlns="http://www.w3.org/2000/svg" width="41.06" height="41.06" viewBox="0 0 41.06 41.06">
  <title>nexcom</title>
  <g id="3489c8d0-0d0d-4978-bec1-8bf3d119b4f1" data-name="categorias">
    <g id="a26855fb-07f0-4e1f-8d3c-a1b8a84b847e" data-name="&lt;Grupo&gt;">
      <g id="0543fc78-414b-4db0-910c-706b6829c301" data-name="&lt;Grupo&gt;">
        <path d="M34.62,16.08a.7.7,0,0,0-1,1l2.76,2.76H23.63a16.64,16.64,0,0,0-3.18-9.13l6.86-4.58L26.4,9.78a.7.7,0,0,0,.51.84.5.5,0,0,0,.17,0,.7.7,0,0,0,.68-.53L29.28,4l-6.1-1.53a.7.7,0,1,0-.34,1.36l3.9,1L19.58,9.6A16.74,16.74,0,0,0,6.88,3.76v1.4a15.33,15.33,0,0,1,11.53,5.22l-2.95,2A11.8,11.8,0,0,0,6.88,8.65h-.7v7a4.88,4.88,0,0,0,0,9.67v7h.7a11.83,11.83,0,0,0,8.58-3.68l2.95,2A15.36,15.36,0,0,1,6.88,35.9v1.39a16.73,16.73,0,0,0,12.7-5.83l7.16,4.78-3.9,1A.69.69,0,0,0,23,38.58a.52.52,0,0,0,.17,0L29.28,37l-1.52-6.1a.71.71,0,0,0-.85-.51.71.71,0,0,0-.51.85l.91,3.66-6.86-4.58a16.67,16.67,0,0,0,3.18-9.13H36.39L33.63,24a.7.7,0,0,0,.49,1.19.7.7,0,0,0,.5-.21l4.44-4.44ZM17.33,19.83H11.72a4.83,4.83,0,0,0-1.18-2.53l4.67-3.11a10.41,10.41,0,0,1,2.12,5.64ZM7.58,10.07a10.49,10.49,0,0,1,6.7,3.06L9.43,16.36a4.89,4.89,0,0,0-1.85-.67ZM3.39,20.53A3.5,3.5,0,1,1,6.88,24a3.49,3.49,0,0,1-3.49-3.49ZM7.58,31V25.36a4.73,4.73,0,0,0,1.85-.67l4.85,3.24A10.43,10.43,0,0,1,7.58,31Zm7.63-4.11-4.67-3.11a4.87,4.87,0,0,0,1.18-2.53h5.61a10.44,10.44,0,0,1-2.12,5.64Zm4.08,2.72-2.92-1.95a11.77,11.77,0,0,0,2.35-6.41h3.51a15.32,15.32,0,0,1-2.94,8.36Zm-.57-9.76a11.8,11.8,0,0,0-2.35-6.42l2.92-1.94a15.29,15.29,0,0,1,2.94,8.36Zm0,0"/>
      </g>
    </g>
  </g>
</svg>
