<svg xmlns="http://www.w3.org/2000/svg" xmlns:xlink="http://www.w3.org/1999/xlink" width="41.06" height="41.06" viewBox="0 0 41.06 41.06">
  <defs>
    <style>
      .\32 b622758-0446-45df-ab51-3521968dea80 {
        fill: none;
      }

      .\34 7297c94-a8e9-4ca2-a54d-81d483c8a658 {
        clip-path: url(#88e97e06-a95a-407a-bd12-3759cc6abdf5);
      }

      .e63f83a2-0cdc-4dbf-8827-998fba0a7e8d {
        fill: #21b7cd;
      }

      .\33 0c67533-e696-4fbc-bbb6-22304069d75d {
        fill: #21b6cc;
      }

      .\37 c49d473-3c9e-46fd-b3af-dd5aea98396f {
        fill: #21b5cc;
      }

      .\32 b71ccf5-a20d-47ff-a732-836cf9e2fb74 {
        fill: #20b4cc;
      }

      .d03ca6e4-152f-49bc-bff8-13761693deb6 {
        fill: #20b3cb;
      }

      .ff1cf907-217d-46ba-9213-eff23b3c064e {
        fill: #20b2cb;
      }

      .\36 2b49e84-8050-4912-a345-6e09fe1d4a10 {
        clip-path: url(#613a86ed-1ada-495c-901f-4baeb0f6246e);
      }

      .\38 c8d51f6-87cc-40ee-a702-0b693c8f7a56 {
        clip-path: url(#3f06dadd-c08b-4c77-b083-2919afcdba25);
      }

      .\38 29b5ed6-1442-40ed-aa22-c581e0cd71a6 {
        fill: #1fafca;
      }

      .b2803b01-de32-4326-876a-97285e2996d3 {
        fill: #1faec9;
      }

      .\35 b03e776-1048-4e14-bcd0-dcbb32fa0023 {
        fill: #1fadc9;
      }

      .\37 e991289-3c91-40cd-bb71-dd9b317171a2 {
        fill: #1eacc9;
      }

      .\33 c0e43e5-f6fd-49de-b25a-23518477e7ba {
        fill: #1eabc8;
      }

      .a131e648-19d0-4f8e-b61a-cb33012eca4f {
        fill: #1eaac8;
      }

      .\33 c976c09-cf0d-4194-ba3d-500496eab3b2 {
        clip-path: url(#a5a2bdc0-25ee-479d-b2c3-5be5fa8e8aa5);
      }

      .ce506aa0-4402-4279-b31e-2d8cdbca2195 {
        clip-path: url(#511e3001-8b6b-493e-aa16-adf26ca904cc);
      }

      .\32 ac5f331-9835-41cf-becd-b2ac74c52633 {
        clip-path: url(#e922b5b3-810f-4f01-868a-af7571f3c2dd);
      }

      .\34 a7aa3c2-633a-47c8-b3c1-afd05ae6f462 {
        clip-path: url(#4ba343f8-c642-4d96-9441-7858b3b8e697);
      }

      .d58c81aa-b97c-4b2e-bca9-62d5adddc686 {
        clip-path: url(#74905a09-905e-48b6-920a-baa969226710);
      }

      .a114f817-f809-4546-a430-7103d52815e7 {
        clip-path: url(#709168bd-5f71-41ce-84bc-affe0a38edd9);
      }

      .\32 4d7d4f6-e0a1-416b-a788-a1ecba88c330 {
        clip-path: url(#9e7409eb-3681-4c95-9b18-036d3659e830);
      }
    </style>
    <clipPath id="88e97e06-a95a-407a-bd12-3759cc6abdf5">
      <path class="2b622758-0446-45df-ab51-3521968dea80" d="M32.58,8.55A.58.58,0,1,1,32,8a.57.57,0,0,1,.58.57Zm0,0"/>
    </clipPath>
    <clipPath id="613a86ed-1ada-495c-901f-4baeb0f6246e">
      <path class="2b622758-0446-45df-ab51-3521968dea80" d="M30.28,8.55A.57.57,0,1,1,29.71,8a.56.56,0,0,1,.57.57Zm0,0"/>
    </clipPath>
    <clipPath id="3f06dadd-c08b-4c77-b083-2919afcdba25">
      <path class="2b622758-0446-45df-ab51-3521968dea80" d="M33.72,10.27a.57.57,0,1,1-.57-.57.56.56,0,0,1,.57.57Zm0,0"/>
    </clipPath>
    <clipPath id="a5a2bdc0-25ee-479d-b2c3-5be5fa8e8aa5">
      <path class="2b622758-0446-45df-ab51-3521968dea80" d="M31.43,10.27a.56.56,0,0,1-.57.57.57.57,0,1,1,0-1.14.56.56,0,0,1,.57.57Zm0,0"/>
    </clipPath>
    <clipPath id="511e3001-8b6b-493e-aa16-adf26ca904cc">
      <path class="2b622758-0446-45df-ab51-3521968dea80" d="M28,8.55A.58.58,0,1,1,27.42,8a.57.57,0,0,1,.57.57Zm0,0"/>
    </clipPath>
    <clipPath id="e922b5b3-810f-4f01-868a-af7571f3c2dd">
      <path class="2b622758-0446-45df-ab51-3521968dea80" d="M29.14,10.27a.57.57,0,0,1-.58.57.57.57,0,0,1,0-1.14.57.57,0,0,1,.58.57Zm0,0"/>
    </clipPath>
    <clipPath id="4ba343f8-c642-4d96-9441-7858b3b8e697">
      <path class="2b622758-0446-45df-ab51-3521968dea80" d="M25.69,8.55A.57.57,0,1,1,25.12,8a.56.56,0,0,1,.57.57Zm0,0"/>
    </clipPath>
    <clipPath id="74905a09-905e-48b6-920a-baa969226710">
      <path class="2b622758-0446-45df-ab51-3521968dea80" d="M26.84,10.27a.58.58,0,1,1-.57-.57.57.57,0,0,1,.57.57Zm0,0"/>
    </clipPath>
    <clipPath id="709168bd-5f71-41ce-84bc-affe0a38edd9">
      <path class="2b622758-0446-45df-ab51-3521968dea80" d="M23.4,8.55A.58.58,0,1,1,22.82,8a.57.57,0,0,1,.58.57Zm0,0"/>
    </clipPath>
    <clipPath id="9e7409eb-3681-4c95-9b18-036d3659e830">
      <path class="2b622758-0446-45df-ab51-3521968dea80" d="M24.55,10.27A.58.58,0,1,1,24,9.7a.57.57,0,0,1,.58.57Zm0,0"/>
    </clipPath>
  </defs>
  <title>05</title>
  <g id="c869e10f-4211-44e4-85cf-a1eb025f8291" data-name="categorias">
    <g id="a31b674d-702c-4f40-8267-66ba93f7eb07" data-name="&lt;Grupo&gt;">
      <g id="a9725deb-d8fd-4142-b1ea-3e73e330dabf" data-name="&lt;Grupo&gt;">
        <path d="M9.34,6.83a2.58,2.58,0,1,0,2.58,2.58A2.59,2.59,0,0,0,9.34,6.83Zm0,4a1.43,1.43,0,1,1,1.43-1.43,1.44,1.44,0,0,1-1.43,1.43Zm0,0"/>
      </g>
      <g id="074bb410-4686-4317-b766-ef509a693c79" data-name="&lt;Grupo&gt;">
        <g class="47297c94-a8e9-4ca2-a54d-81d483c8a658">
          <rect class="e63f83a2-0cdc-4dbf-8827-998fba0a7e8d" x="31.43" y="7.98" width="1.15" height="0.08"/>
          <rect class="30c67533-e696-4fbc-bbb6-22304069d75d" x="31.43" y="8.06" width="1.15" height="0.22"/>
          <rect class="7c49d473-3c9e-46fd-b3af-dd5aea98396f" x="31.43" y="8.28" width="1.15" height="0.22"/>
          <rect class="2b71ccf5-a20d-47ff-a732-836cf9e2fb74" x="31.43" y="8.51" width="1.15" height="0.22"/>
          <rect class="d03ca6e4-152f-49bc-bff8-13761693deb6" x="31.43" y="8.73" width="1.15" height="0.22"/>
          <rect class="ff1cf907-217d-46ba-9213-eff23b3c064e" x="31.43" y="8.96" width="1.15" height="0.17"/>
        </g>
      </g>
      <g id="a1969bc3-aec3-4892-ac36-986a39569d58" data-name="&lt;Grupo&gt;">
        <g class="62b49e84-8050-4912-a345-6e09fe1d4a10">
          <rect class="e63f83a2-0cdc-4dbf-8827-998fba0a7e8d" x="29.14" y="7.98" width="1.15" height="0.08"/>
          <rect class="30c67533-e696-4fbc-bbb6-22304069d75d" x="29.14" y="8.06" width="1.15" height="0.22"/>
          <rect class="7c49d473-3c9e-46fd-b3af-dd5aea98396f" x="29.14" y="8.28" width="1.15" height="0.22"/>
          <rect class="2b71ccf5-a20d-47ff-a732-836cf9e2fb74" x="29.14" y="8.51" width="1.15" height="0.22"/>
          <rect class="d03ca6e4-152f-49bc-bff8-13761693deb6" x="29.14" y="8.73" width="1.15" height="0.22"/>
          <rect class="ff1cf907-217d-46ba-9213-eff23b3c064e" x="29.14" y="8.96" width="1.15" height="0.17"/>
        </g>
      </g>
      <g id="1feef26c-1c54-49c7-aed1-9befe180f75e" data-name="&lt;Grupo&gt;">
        <g class="8c8d51f6-87cc-40ee-a702-0b693c8f7a56">
          <rect class="829b5ed6-1442-40ed-aa22-c581e0cd71a6" x="32.58" y="9.7" width="1.15" height="0.15"/>
          <rect class="b2803b01-de32-4326-876a-97285e2996d3" x="32.58" y="9.85" width="1.15" height="0.22"/>
          <rect class="5b03e776-1048-4e14-bcd0-dcbb32fa0023" x="32.58" y="10.08" width="1.15" height="0.22"/>
          <rect class="7e991289-3c91-40cd-bb71-dd9b317171a2" x="32.58" y="10.3" width="1.15" height="0.22"/>
          <rect class="3c0e43e5-f6fd-49de-b25a-23518477e7ba" x="32.58" y="10.53" width="1.15" height="0.22"/>
          <rect class="a131e648-19d0-4f8e-b61a-cb33012eca4f" x="32.58" y="10.75" width="1.15" height="0.09"/>
        </g>
      </g>
      <g id="652f4da6-60cd-4d19-bde1-50b977f5a18f" data-name="&lt;Grupo&gt;">
        <g class="3c976c09-cf0d-4194-ba3d-500496eab3b2">
          <rect class="829b5ed6-1442-40ed-aa22-c581e0cd71a6" x="30.28" y="9.7" width="1.15" height="0.15"/>
          <rect class="b2803b01-de32-4326-876a-97285e2996d3" x="30.28" y="9.85" width="1.15" height="0.22"/>
          <rect class="5b03e776-1048-4e14-bcd0-dcbb32fa0023" x="30.28" y="10.08" width="1.15" height="0.22"/>
          <rect class="7e991289-3c91-40cd-bb71-dd9b317171a2" x="30.28" y="10.3" width="1.15" height="0.22"/>
          <rect class="3c0e43e5-f6fd-49de-b25a-23518477e7ba" x="30.28" y="10.53" width="1.15" height="0.22"/>
          <rect class="a131e648-19d0-4f8e-b61a-cb33012eca4f" x="30.28" y="10.75" width="1.15" height="0.09"/>
        </g>
      </g>
      <g id="f1380a07-5890-41a5-8668-f0c6ef2f82ab" data-name="&lt;Grupo&gt;">
        <g class="ce506aa0-4402-4279-b31e-2d8cdbca2195">
          <rect class="e63f83a2-0cdc-4dbf-8827-998fba0a7e8d" x="26.84" y="7.98" width="1.15" height="0.08"/>
          <rect class="30c67533-e696-4fbc-bbb6-22304069d75d" x="26.84" y="8.06" width="1.15" height="0.22"/>
          <rect class="7c49d473-3c9e-46fd-b3af-dd5aea98396f" x="26.84" y="8.28" width="1.15" height="0.22"/>
          <rect class="2b71ccf5-a20d-47ff-a732-836cf9e2fb74" x="26.84" y="8.51" width="1.15" height="0.22"/>
          <rect class="d03ca6e4-152f-49bc-bff8-13761693deb6" x="26.84" y="8.73" width="1.15" height="0.22"/>
          <rect class="ff1cf907-217d-46ba-9213-eff23b3c064e" x="26.84" y="8.96" width="1.15" height="0.17"/>
        </g>
      </g>
      <g id="6ab3b29e-1db8-4c1f-999e-c9aebd9a32a9" data-name="&lt;Grupo&gt;">
        <g class="2ac5f331-9835-41cf-becd-b2ac74c52633">
          <rect class="829b5ed6-1442-40ed-aa22-c581e0cd71a6" x="27.99" y="9.7" width="1.15" height="0.15"/>
          <rect class="b2803b01-de32-4326-876a-97285e2996d3" x="27.99" y="9.85" width="1.15" height="0.22"/>
          <rect class="5b03e776-1048-4e14-bcd0-dcbb32fa0023" x="27.99" y="10.08" width="1.15" height="0.22"/>
          <rect class="7e991289-3c91-40cd-bb71-dd9b317171a2" x="27.99" y="10.3" width="1.15" height="0.22"/>
          <rect class="3c0e43e5-f6fd-49de-b25a-23518477e7ba" x="27.99" y="10.53" width="1.15" height="0.22"/>
          <rect class="a131e648-19d0-4f8e-b61a-cb33012eca4f" x="27.99" y="10.75" width="1.15" height="0.09"/>
        </g>
      </g>
      <g id="c6cc5d22-59e0-41bd-a0e6-7cfeb82fce3e" data-name="&lt;Grupo&gt;">
        <g class="4a7aa3c2-633a-47c8-b3c1-afd05ae6f462">
          <rect class="e63f83a2-0cdc-4dbf-8827-998fba0a7e8d" x="24.55" y="7.98" width="1.15" height="0.08"/>
          <rect class="30c67533-e696-4fbc-bbb6-22304069d75d" x="24.55" y="8.06" width="1.15" height="0.22"/>
          <rect class="7c49d473-3c9e-46fd-b3af-dd5aea98396f" x="24.55" y="8.28" width="1.15" height="0.22"/>
          <rect class="2b71ccf5-a20d-47ff-a732-836cf9e2fb74" x="24.55" y="8.51" width="1.15" height="0.22"/>
          <rect class="d03ca6e4-152f-49bc-bff8-13761693deb6" x="24.55" y="8.73" width="1.15" height="0.22"/>
          <rect class="ff1cf907-217d-46ba-9213-eff23b3c064e" x="24.55" y="8.96" width="1.15" height="0.17"/>
        </g>
      </g>
      <g id="a020deca-659d-42d5-8037-1b9394288524" data-name="&lt;Grupo&gt;">
        <g class="d58c81aa-b97c-4b2e-bca9-62d5adddc686">
          <rect class="829b5ed6-1442-40ed-aa22-c581e0cd71a6" x="25.69" y="9.7" width="1.15" height="0.15"/>
          <rect class="b2803b01-de32-4326-876a-97285e2996d3" x="25.69" y="9.85" width="1.15" height="0.22"/>
          <rect class="5b03e776-1048-4e14-bcd0-dcbb32fa0023" x="25.69" y="10.08" width="1.15" height="0.22"/>
          <rect class="7e991289-3c91-40cd-bb71-dd9b317171a2" x="25.69" y="10.3" width="1.15" height="0.22"/>
          <rect class="3c0e43e5-f6fd-49de-b25a-23518477e7ba" x="25.69" y="10.53" width="1.15" height="0.22"/>
          <rect class="a131e648-19d0-4f8e-b61a-cb33012eca4f" x="25.69" y="10.75" width="1.15" height="0.09"/>
        </g>
      </g>
      <g id="650d77be-2e31-45bb-9d99-67dc7e6f09d8" data-name="&lt;Grupo&gt;">
        <g class="a114f817-f809-4546-a430-7103d52815e7">
          <rect class="e63f83a2-0cdc-4dbf-8827-998fba0a7e8d" x="22.25" y="7.98" width="1.15" height="0.08"/>
          <rect class="30c67533-e696-4fbc-bbb6-22304069d75d" x="22.25" y="8.06" width="1.15" height="0.22"/>
          <rect class="7c49d473-3c9e-46fd-b3af-dd5aea98396f" x="22.25" y="8.28" width="1.15" height="0.22"/>
          <rect class="2b71ccf5-a20d-47ff-a732-836cf9e2fb74" x="22.25" y="8.51" width="1.15" height="0.22"/>
          <rect class="d03ca6e4-152f-49bc-bff8-13761693deb6" x="22.25" y="8.73" width="1.15" height="0.22"/>
          <rect class="ff1cf907-217d-46ba-9213-eff23b3c064e" x="22.25" y="8.96" width="1.15" height="0.17"/>
        </g>
      </g>
      <g id="8fcdd6a1-153f-40d7-b646-51a19d1fe457" data-name="&lt;Grupo&gt;">
        <g class="24d7d4f6-e0a1-416b-a788-a1ecba88c330">
          <rect class="829b5ed6-1442-40ed-aa22-c581e0cd71a6" x="23.4" y="9.7" width="1.15" height="0.15"/>
          <rect class="b2803b01-de32-4326-876a-97285e2996d3" x="23.4" y="9.85" width="1.15" height="0.22"/>
          <rect class="5b03e776-1048-4e14-bcd0-dcbb32fa0023" x="23.4" y="10.08" width="1.15" height="0.22"/>
          <rect class="7e991289-3c91-40cd-bb71-dd9b317171a2" x="23.4" y="10.3" width="1.15" height="0.22"/>
          <rect class="3c0e43e5-f6fd-49de-b25a-23518477e7ba" x="23.4" y="10.53" width="1.15" height="0.22"/>
          <rect class="a131e648-19d0-4f8e-b61a-cb33012eca4f" x="23.4" y="10.75" width="1.15" height="0.09"/>
        </g>
      </g>
      <g id="27b05fb8-0553-45d5-9bfc-b076839a051d" data-name="&lt;Grupo&gt;">
        <path d="M9.34,17.73a2.58,2.58,0,1,0,2.58,2.58,2.59,2.59,0,0,0-2.58-2.58Zm0,4a1.44,1.44,0,1,1,0-2.87,1.44,1.44,0,0,1,0,2.87Zm0,0"/>
      </g>
      <g id="ee611afb-a051-4f81-aabe-a10cd69ceb51" data-name="&lt;Grupo&gt;">
        <path d="M9.34,28.63a2.59,2.59,0,1,0,2.58,2.59,2.59,2.59,0,0,0-2.58-2.59Zm0,4a1.44,1.44,0,1,1,1.43-1.43,1.44,1.44,0,0,1-1.43,1.43Zm0,0"/>
      </g>
      <g id="24ed7881-cda7-4a9c-9f92-be69f456208b" data-name="&lt;Grupo&gt;">
        <path d="M37.74,12.79V6A2.64,2.64,0,0,0,35.1,3.39H6A2.64,2.64,0,0,0,3.32,6v6.76a2.6,2.6,0,0,0,1,2.07,2.63,2.63,0,0,0-1,2.07v6.76a2.6,2.6,0,0,0,1,2.07,2.63,2.63,0,0,0-1,2.07v6.76A2.65,2.65,0,0,0,6,37.24H22a27.8,27.8,0,0,0,4.89.43c5,0,10.22-1.29,10.84-3.76a.55.55,0,0,0,.06-.26V17.73a.64.64,0,0,0-.05-.24,3.55,3.55,0,0,0-2-2.11,2.65,2.65,0,0,0,2.1-2.59ZM4.46,23.69V16.93A1.5,1.5,0,0,1,6,15.44h12a3.48,3.48,0,0,0-1.94,2,.64.64,0,0,0-.05.24v7.46H6a1.5,1.5,0,0,1-1.5-1.5Zm13-3.52.08,0,.32.19.09.05.42.21.07,0,.39.17.12.05.49.18h0l.49.16.14,0,.51.14h0l.56.14.15,0,.49.1.1,0,.6.1.15,0,.5.07.14,0,.62.07h.13l.52.05h.16l.64,0h.09c.18,0,.37,0,.56,0h1.62l.56,0h.09l.64,0h.15l.53-.05h.13l.62-.07.14,0,.5-.07.15,0,.59-.1.1,0,.5-.1.15,0,.56-.14h0l.51-.14.13,0,.49-.16h0l.49-.18.11-.05.4-.17.07,0,.41-.21.1-.05.31-.19.08,0a4,4,0,0,0,.34-.23l0,0v2.86a.69.69,0,0,0,0,.2.62.62,0,0,1,0,.13.63.63,0,0,1,0,.19.88.88,0,0,1-.05.15.75.75,0,0,1-.06.13l-.09.13a1.19,1.19,0,0,1-.15.18l-.06.07c-1.22,1.17-4.8,2.24-9.31,2.24s-8.09-1.07-9.3-2.24l-.07-.08a.8.8,0,0,1-.15-.17l-.09-.13-.06-.13a.88.88,0,0,1-.05-.15,1.48,1.48,0,0,1,0-.19.49.49,0,0,1,0-.12.79.79,0,0,0,0-.22V19.92h0a2.52,2.52,0,0,0,.33.24Zm19.07,8.44a.33.33,0,0,1-.07.13.57.57,0,0,1-.08.13,1.19,1.19,0,0,1-.15.18l-.06.07c-1.22,1.18-4.8,2.24-9.31,2.24s-8.09-1.06-9.3-2.24l-.08-.07-.14-.17-.09-.14-.06-.12a1.42,1.42,0,0,1-.05-.16.9.9,0,0,1,0-.16v-.07a.22.22,0,0,1,0-.08.76.76,0,0,0,0-.15V25.08l.07.06.23.15.19.13.32.18h0A15.09,15.09,0,0,0,22.56,27h0c.59.09,1.19.16,1.81.22l.39,0,.38,0,.52,0H28l.52,0,.39,0,.38,0c.62-.06,1.23-.13,1.82-.22h0a13.9,13.9,0,0,0,5-1.6l.2-.12.22-.16.09-.05V28a.44.44,0,0,0,0,.2.49.49,0,0,1,0,.12.58.58,0,0,1,0,.19.88.88,0,0,1-.05.15ZM6,36.09a1.5,1.5,0,0,1-1.5-1.5V27.83A1.5,1.5,0,0,1,6,26.34h10v7.89h.17l0,.06a.83.83,0,0,0,.07.13,1.75,1.75,0,0,0,.16.25,2,2,0,0,0,.19.24l.11.12a4.32,4.32,0,0,0,.79.64l0,0a6.13,6.13,0,0,0,.72.4Zm30.63-2.58a.11.11,0,0,1,0,.05c-.23,1.43-4.2,3-9.74,3a26.77,26.77,0,0,1-4.75-.41h0c-2.85-.54-4.43-1.45-4.87-2.22h0a.54.54,0,0,1,0-.11.86.86,0,0,1-.07-.21V30.25l.07.05.23.16.19.12a3.37,3.37,0,0,0,.32.19h0a15.09,15.09,0,0,0,4.66,1.41h0c.59.1,1.19.17,1.8.22l.4,0,.38,0,.52,0H26l.84,0,.84,0H28l.52,0,.38,0,.39,0c.62,0,1.23-.12,1.82-.22h0a13.9,13.9,0,0,0,5-1.59l.2-.13.22-.16.08-.05Zm0-15.56c0,1.45-4.17,3.08-9.75,3.08S17.09,19.4,17.09,18a1.81,1.81,0,0,1,0-.23,1.13,1.13,0,0,1,.11-.22v0a3.19,3.19,0,0,1,1.17-1l.08,0,.32-.16a3.89,3.89,0,0,1,.41-.18l.09,0a13.81,13.81,0,0,1,2.37-.69l.87-.17.23,0a28.46,28.46,0,0,1,8.14,0l.23,0,.87.17C34.8,16,36.59,17,36.59,18Zm0-5.16a1.5,1.5,0,0,1-1.49,1.5H32.44l-.1,0c-.38-.08-.76-.16-1.16-.22l-.12,0a28,28,0,0,0-8.44,0l-.12,0c-.39.06-.78.14-1.16.22l-.1,0H6a1.5,1.5,0,0,1-1.5-1.5V6A1.5,1.5,0,0,1,6,4.53H35.1A1.5,1.5,0,0,1,36.59,6Zm0,0"/>
      </g>
    </g>
  </g>
</svg>
