<svg xmlns="http://www.w3.org/2000/svg" xmlns:xlink="http://www.w3.org/1999/xlink" width="42.56" height="42.56" viewBox="0 0 42.56 42.56">
  <defs>
    <style>
      .\30 5e400d8-fe15-4063-8c83-44e47a9a00ec {
        clip-path: url(#a15433fa-3353-4579-b549-94f27d2d231d);
      }

      .d325167a-5398-471c-9967-3ad3174cbabd {
        clip-path: url(#4fa13678-71e6-4317-911a-dd3ed10490a9);
      }

      .c9046aae-36e3-4004-b807-ec41ef665429 {
        clip-path: url(#97579516-bbd4-4d1e-a7ca-06b032827b90);
      }

      .e0dbb0b7-e53e-40b9-b49c-516c88d080ae {
        clip-path: url(#6f63d10a-c388-4511-8567-b7c783098b90);
      }

      .bae15254-e9f0-4ad9-99ab-e77468fe93b8 {
        clip-path: url(#6c104092-903c-49a0-8f7a-20e07b86f220);
      }

      .f9e97999-3d19-4e40-bf7a-0c150c0062d1 {
        clip-path: url(#9681228f-19ae-4f6a-a1aa-e01349b0af7a);
      }

      .ef140e45-0203-4f66-81d3-6b2cd3f6f5e9 {
        clip-path: url(#1ee87b3a-dbe5-44de-97a4-03fef108bc32);
      }

      .\32 226e5e6-7535-411a-8ceb-8b5afe248da1 {
        clip-path: url(#3941580e-d5c9-43aa-a4f9-4b5cc970bf9d);
      }

      .\36 15913a4-3b6c-44b4-a747-7614866f5746 {
        clip-path: url(#3e5f8995-2fd3-4d7c-bd68-b05fb0582ca0);
      }

      .e448153f-d95c-46f3-9a1b-ce7d0abe6e1d {
        clip-path: url(#3855aad9-d695-4920-9c4c-f4b981acca2f);
      }
    </style>
    <clipPath id="a15433fa-3353-4579-b549-94f27d2d231d">
      <path d="M3.7,25.67H38.86V5.58A1.25,1.25,0,0,0,37.6,4.33H5A1.25,1.25,0,0,0,3.7,5.58V25.67Zm35.79,1.26H3.07a.63.63,0,0,1-.63-.63V5.58A2.52,2.52,0,0,1,5,3.07H37.6a2.51,2.51,0,0,1,2.51,2.51V26.3a.63.63,0,0,1-.62.63Z"/>
    </clipPath>
    <clipPath id="4fa13678-71e6-4317-911a-dd3ed10490a9">
      <path d="M3.7,26.93v2.51A1.26,1.26,0,0,0,5,30.7H37.6a1.26,1.26,0,0,0,1.26-1.26V26.93Zm33.9,5H5a2.51,2.51,0,0,1-2.52-2.51V26.3a.64.64,0,0,1,.63-.63H39.49a.63.63,0,0,1,.62.63v3.14A2.51,2.51,0,0,1,37.6,32Z"/>
    </clipPath>
    <clipPath id="97579516-bbd4-4d1e-a7ca-06b032827b90">
      <path d="M23.16,29.44H19.4a.63.63,0,1,1,0-1.25h3.76a.63.63,0,1,1,0,1.25Z"/>
    </clipPath>
    <clipPath id="6f63d10a-c388-4511-8567-b7c783098b90">
      <path d="M6.21,25.67H36.35V6.84H6.21V25.67ZM37,26.93H5.58A.63.63,0,0,1,5,26.3V6.21a.63.63,0,0,1,.62-.63H37a.63.63,0,0,1,.62.63V26.3a.63.63,0,0,1-.62.63Z"/>
    </clipPath>
    <clipPath id="6c104092-903c-49a0-8f7a-20e07b86f220">
      <path d="M13.12,37a.63.63,0,1,0,0,1.25H29.44a.63.63,0,1,0,0-1.25Zm16.32,2.51H13.12a1.89,1.89,0,1,1,0-3.77H29.44a1.89,1.89,0,1,1,0,3.77Z"/>
    </clipPath>
    <clipPath id="9681228f-19ae-4f6a-a1aa-e01349b0af7a">
      <path d="M17.43,35.72h7.7A6,6,0,0,1,23.81,32H18.75a6,6,0,0,1-1.32,3.77ZM28.19,37H14.37a.63.63,0,0,1-.62-.63.63.63,0,0,1,.62-.63c2.09,0,3.14-1.48,3.14-4.39a.63.63,0,0,1,.63-.63h6.28a.63.63,0,0,1,.63.63c0,2.91,1.05,4.39,3.14,4.39a.63.63,0,0,1,.62.63.63.63,0,0,1-.62.63Z"/>
    </clipPath>
    <clipPath id="1ee87b3a-dbe5-44de-97a4-03fef108bc32">
      <path d="M28.27,21.28a.82.82,0,0,1,.58.24l1.38,1.38.88-.89-1.45-1.45a.67.67,0,0,1-.21-.5.71.71,0,0,1,.21-.51l.48-.48L26,17.82,27.23,22l.46-.46a.82.82,0,0,1,.58-.24Zm2,3.14a.64.64,0,0,1-.45-.19l-1.51-1.51-.89.89a.64.64,0,0,1-.6.16.63.63,0,0,1-.45-.43l-1.88-6.27a.61.61,0,0,1,.16-.63.64.64,0,0,1,.62-.16l6.28,1.89a.63.63,0,0,1,.43.44.63.63,0,0,1-.17.6l-.84.85,1.52,1.51a.64.64,0,0,1,0,.89l-1.78,1.77a.63.63,0,0,1-.44.19Z"/>
    </clipPath>
    <clipPath id="3941580e-d5c9-43aa-a4f9-4b5cc970bf9d">
      <path d="M11.86,11.23H28.19V9.35H11.86v1.88Zm17,1.26H11.23a.63.63,0,0,1-.62-.63V8.72a.62.62,0,0,1,.62-.62H28.81a.63.63,0,0,1,.63.62v3.14a.63.63,0,0,1-.63.63Z"/>
    </clipPath>
    <clipPath id="3e5f8995-2fd3-4d7c-bd68-b05fb0582ca0">
      <path d="M14.37,17.51h3.77V16.26H14.37v1.25Zm4.4,1.26h-5a.63.63,0,0,1-.63-.63V15.63a.63.63,0,0,1,.63-.63h5a.63.63,0,0,1,.63.63v2.51a.63.63,0,0,1-.63.63Z"/>
    </clipPath>
    <clipPath id="3855aad9-d695-4920-9c4c-f4b981acca2f">
      <path d="M11.86,20H25.34l-.89-2.95a.61.61,0,0,1,.16-.63.64.64,0,0,1,.62-.16l3,.89V9.35H11.86V20Zm14.32,1.26H11.23a.63.63,0,0,1-.62-.63V8.72a.62.62,0,0,1,.62-.62H28.81a.63.63,0,0,1,.63.62V18a.63.63,0,0,1-.25.51.66.66,0,0,1-.56.1L26,17.82l.79,2.65a.63.63,0,0,1-.1.56.6.6,0,0,1-.5.25Z"/>
    </clipPath>
  </defs>
  <title>09</title>
  <g id="6041e4e7-0c92-4209-bd08-77133215f96d" data-name="categorias">
    <g id="f4b527dd-18f3-469f-9e6a-67dff2cc2e66" data-name="&lt;Grupo&gt;">
      <g id="4f8ecab6-f192-494e-ad04-ce9aadd4b72b" data-name="&lt;Grupo&gt;">
        <g>
          <path d="M3.7,25.67H38.86V5.58A1.25,1.25,0,0,0,37.6,4.33H5A1.25,1.25,0,0,0,3.7,5.58V25.67Zm35.79,1.26H3.07a.63.63,0,0,1-.63-.63V5.58A2.52,2.52,0,0,1,5,3.07H37.6a2.51,2.51,0,0,1,2.51,2.51V26.3a.63.63,0,0,1-.62.63Z"/>
          <g class="05e400d8-fe15-4063-8c83-44e47a9a00ec">
            <rect x="2.44" y="3.07" width="37.67" height="0.27"/>
            <rect x="2.44" y="3.34" width="37.67" height="0.24"/>
            <rect x="2.44" y="3.58" width="37.67" height="0.24"/>
            <rect x="2.44" y="3.82" width="37.67" height="0.24"/>
            <rect x="2.44" y="4.06" width="37.67" height="0.24"/>
            <rect x="2.44" y="4.3" width="37.67" height="0.24"/>
            <rect x="2.44" y="4.54" width="37.67" height="0.24"/>
            <rect x="2.44" y="4.78" width="37.67" height="0.24"/>
            <rect x="2.44" y="5.02" width="37.67" height="0.24"/>
            <rect x="2.44" y="5.26" width="37.67" height="0.24"/>
            <rect x="2.44" y="5.51" width="37.67" height="0.24"/>
            <rect x="2.44" y="5.75" width="37.67" height="0.24"/>
            <rect x="2.44" y="5.99" width="37.67" height="0.24"/>
            <rect x="2.44" y="6.23" width="37.67" height="0.24"/>
            <rect x="2.44" y="6.47" width="37.67" height="0.24"/>
            <rect x="2.44" y="6.71" width="37.67" height="0.24"/>
            <rect x="2.44" y="6.95" width="37.67" height="0.24"/>
            <rect x="2.44" y="7.19" width="37.67" height="0.24"/>
            <rect x="2.44" y="7.43" width="37.67" height="0.24"/>
            <rect x="2.44" y="7.67" width="37.67" height="0.24"/>
            <rect x="2.44" y="7.91" width="37.67" height="0.24"/>
            <rect x="2.44" y="8.15" width="37.67" height="0.24"/>
            <rect x="2.44" y="8.39" width="37.67" height="0.24"/>
            <rect x="2.44" y="8.63" width="37.67" height="0.24"/>
            <rect x="2.44" y="8.87" width="37.67" height="0.24"/>
            <rect x="2.44" y="9.11" width="37.67" height="0.24"/>
            <rect x="2.44" y="9.35" width="37.67" height="0.24"/>
            <rect x="2.44" y="9.59" width="37.67" height="0.24"/>
            <rect x="2.44" y="9.83" width="37.67" height="0.24"/>
            <rect x="2.44" y="10.07" width="37.67" height="0.24"/>
            <rect x="2.44" y="10.31" width="37.67" height="0.24"/>
            <rect x="2.44" y="10.55" width="37.67" height="0.24"/>
            <rect x="2.44" y="10.79" width="37.67" height="0.24"/>
            <rect x="2.44" y="11.03" width="37.67" height="0.24"/>
            <rect x="2.44" y="11.27" width="37.67" height="0.24"/>
            <rect x="2.44" y="11.51" width="37.67" height="0.24"/>
            <rect x="2.44" y="11.75" width="37.67" height="0.24"/>
            <rect x="2.44" y="11.99" width="37.67" height="0.24"/>
            <rect x="2.44" y="12.23" width="37.67" height="0.24"/>
            <rect x="2.44" y="12.47" width="37.67" height="0.24"/>
            <rect x="2.44" y="12.71" width="37.67" height="0.24"/>
            <rect x="2.44" y="12.95" width="37.67" height="0.24"/>
            <rect x="2.44" y="13.19" width="37.67" height="0.24"/>
            <rect x="2.44" y="13.43" width="37.67" height="0.24"/>
            <rect x="2.44" y="13.67" width="37.67" height="0.24"/>
            <rect x="2.44" y="13.91" width="37.67" height="0.24"/>
            <rect x="2.44" y="14.15" width="37.67" height="0.24"/>
            <rect x="2.44" y="14.39" width="37.67" height="0.24"/>
            <rect x="2.44" y="14.63" width="37.67" height="0.24"/>
            <rect x="2.44" y="14.87" width="37.67" height="0.24"/>
            <rect x="2.44" y="15.11" width="37.67" height="0.24"/>
            <rect x="2.44" y="15.35" width="37.67" height="0.24"/>
            <rect x="2.44" y="15.59" width="37.67" height="0.24"/>
            <rect x="2.44" y="15.83" width="37.67" height="0.24"/>
            <rect x="2.44" y="16.07" width="37.67" height="0.24"/>
            <rect x="2.44" y="16.31" width="37.67" height="0.24"/>
            <rect x="2.44" y="16.55" width="37.67" height="0.24"/>
            <rect x="2.44" y="16.8" width="37.67" height="0.24"/>
            <rect x="2.44" y="17.04" width="37.67" height="0.24"/>
            <rect x="2.44" y="17.28" width="37.67" height="0.24"/>
            <rect x="2.44" y="17.52" width="37.67" height="0.24"/>
            <rect x="2.44" y="17.76" width="37.67" height="0.24"/>
            <rect x="2.44" y="18" width="37.67" height="0.24"/>
            <rect x="2.44" y="18.24" width="37.67" height="0.24"/>
            <rect x="2.44" y="18.48" width="37.67" height="0.24"/>
            <rect x="2.44" y="18.72" width="37.67" height="0.24"/>
            <rect x="2.44" y="18.96" width="37.67" height="0.24"/>
            <rect x="2.44" y="19.2" width="37.67" height="0.24"/>
            <rect x="2.44" y="19.44" width="37.67" height="0.24"/>
            <rect x="2.44" y="19.68" width="37.67" height="0.24"/>
            <rect x="2.44" y="19.92" width="37.67" height="0.24"/>
            <rect x="2.44" y="20.16" width="37.67" height="0.24"/>
            <rect x="2.44" y="20.4" width="37.67" height="0.24"/>
            <rect x="2.44" y="20.64" width="37.67" height="0.24"/>
            <rect x="2.44" y="20.88" width="37.67" height="0.24"/>
            <rect x="2.44" y="21.12" width="37.67" height="0.24"/>
            <rect x="2.44" y="21.36" width="37.67" height="0.24"/>
            <rect x="2.44" y="21.6" width="37.67" height="0.24"/>
            <rect x="2.44" y="21.84" width="37.67" height="0.24"/>
            <rect x="2.44" y="22.08" width="37.67" height="0.24"/>
            <rect x="2.44" y="22.32" width="37.67" height="0.24"/>
            <rect x="2.44" y="22.56" width="37.67" height="0.24"/>
            <rect x="2.44" y="22.8" width="37.67" height="0.24"/>
            <rect x="2.44" y="23.04" width="37.67" height="0.24"/>
            <rect x="2.44" y="23.28" width="37.67" height="0.24"/>
            <rect x="2.44" y="23.52" width="37.67" height="0.24"/>
            <rect x="2.44" y="23.76" width="37.67" height="0.24"/>
            <rect x="2.44" y="24" width="37.67" height="0.24"/>
            <rect x="2.44" y="24.24" width="37.67" height="0.24"/>
            <rect x="2.44" y="24.48" width="37.67" height="0.24"/>
            <rect x="2.44" y="24.72" width="37.67" height="0.24"/>
            <rect x="2.44" y="24.96" width="37.67" height="0.24"/>
            <rect x="2.44" y="25.2" width="37.67" height="0.24"/>
            <rect x="2.44" y="25.44" width="37.67" height="0.24"/>
            <rect x="2.44" y="25.68" width="37.67" height="0.24"/>
            <rect x="2.44" y="25.92" width="37.67" height="0.24"/>
            <rect x="2.44" y="26.16" width="37.67" height="0.24"/>
            <rect x="2.44" y="26.4" width="37.67" height="0.24"/>
            <rect x="2.44" y="26.64" width="37.67" height="0.24"/>
            <rect x="2.44" y="26.88" width="37.67" height="0.05"/>
            <rect x="3.7" y="4.33" width="35.16" height="0.22"/>
            <rect x="3.7" y="4.54" width="35.16" height="0.24"/>
            <rect x="3.7" y="4.78" width="35.16" height="0.24"/>
            <rect x="3.7" y="5.02" width="35.16" height="0.24"/>
            <rect x="3.7" y="5.26" width="35.16" height="0.24"/>
            <rect x="3.7" y="5.51" width="35.16" height="0.24"/>
            <rect x="3.7" y="5.75" width="35.16" height="0.24"/>
            <rect x="3.7" y="5.99" width="35.16" height="0.24"/>
            <rect x="3.7" y="6.23" width="35.16" height="0.24"/>
            <rect x="3.7" y="6.47" width="35.16" height="0.24"/>
            <rect x="3.7" y="6.71" width="35.16" height="0.24"/>
            <rect x="3.7" y="6.95" width="35.16" height="0.24"/>
            <rect x="3.7" y="7.19" width="35.16" height="0.24"/>
            <rect x="3.7" y="7.43" width="35.16" height="0.24"/>
            <rect x="3.7" y="7.67" width="35.16" height="0.24"/>
            <rect x="3.7" y="7.91" width="35.16" height="0.24"/>
            <rect x="3.7" y="8.15" width="35.16" height="0.24"/>
            <rect x="3.7" y="8.39" width="35.16" height="0.24"/>
            <rect x="3.7" y="8.63" width="35.16" height="0.24"/>
            <rect x="3.7" y="8.87" width="35.16" height="0.24"/>
            <rect x="3.7" y="9.11" width="35.16" height="0.24"/>
            <rect x="3.7" y="9.35" width="35.16" height="0.24"/>
            <rect x="3.7" y="9.59" width="35.16" height="0.24"/>
            <rect x="3.7" y="9.83" width="35.16" height="0.24"/>
            <rect x="3.7" y="10.07" width="35.16" height="0.24"/>
            <rect x="3.7" y="10.31" width="35.16" height="0.24"/>
            <rect x="3.7" y="10.55" width="35.16" height="0.24"/>
            <rect x="3.7" y="10.79" width="35.16" height="0.24"/>
            <rect x="3.7" y="11.03" width="35.16" height="0.24"/>
            <rect x="3.7" y="11.27" width="35.16" height="0.24"/>
            <rect x="3.7" y="11.51" width="35.16" height="0.24"/>
            <rect x="3.7" y="11.75" width="35.16" height="0.24"/>
            <rect x="3.7" y="11.99" width="35.16" height="0.24"/>
            <rect x="3.7" y="12.23" width="35.16" height="0.24"/>
            <rect x="3.7" y="12.47" width="35.16" height="0.24"/>
            <rect x="3.7" y="12.71" width="35.16" height="0.24"/>
            <rect x="3.7" y="12.95" width="35.16" height="0.24"/>
            <rect x="3.7" y="13.19" width="35.16" height="0.24"/>
            <rect x="3.7" y="13.43" width="35.16" height="0.24"/>
            <rect x="3.7" y="13.67" width="35.16" height="0.24"/>
            <rect x="3.7" y="13.91" width="35.16" height="0.24"/>
            <rect x="3.7" y="14.15" width="35.16" height="0.24"/>
            <rect x="3.7" y="14.39" width="35.16" height="0.24"/>
            <rect x="3.7" y="14.63" width="35.16" height="0.24"/>
            <rect x="3.7" y="14.87" width="35.16" height="0.24"/>
            <rect x="3.7" y="15.11" width="35.16" height="0.24"/>
            <rect x="3.7" y="15.35" width="35.16" height="0.24"/>
            <rect x="3.7" y="15.59" width="35.16" height="0.24"/>
            <rect x="3.7" y="15.83" width="35.16" height="0.24"/>
            <rect x="3.7" y="16.07" width="35.16" height="0.24"/>
            <rect x="3.7" y="16.31" width="35.16" height="0.24"/>
            <rect x="3.7" y="16.55" width="35.16" height="0.24"/>
            <rect x="3.7" y="16.8" width="35.16" height="0.24"/>
            <rect x="3.7" y="17.04" width="35.16" height="0.24"/>
            <rect x="3.7" y="17.28" width="35.16" height="0.24"/>
            <rect x="3.7" y="17.52" width="35.16" height="0.24"/>
            <rect x="3.7" y="17.76" width="35.16" height="0.24"/>
            <rect x="3.7" y="18" width="35.16" height="0.24"/>
            <rect x="3.7" y="18.24" width="35.16" height="0.24"/>
            <rect x="3.7" y="18.48" width="35.16" height="0.24"/>
            <rect x="3.7" y="18.72" width="35.16" height="0.24"/>
            <rect x="3.7" y="18.96" width="35.16" height="0.24"/>
            <rect x="3.7" y="19.2" width="35.16" height="0.24"/>
            <rect x="3.7" y="19.44" width="35.16" height="0.24"/>
            <rect x="3.7" y="19.68" width="35.16" height="0.24"/>
            <rect x="3.7" y="19.92" width="35.16" height="0.24"/>
            <rect x="3.7" y="20.16" width="35.16" height="0.24"/>
            <rect x="3.7" y="20.4" width="35.16" height="0.24"/>
            <rect x="3.7" y="20.64" width="35.16" height="0.24"/>
            <rect x="3.7" y="20.88" width="35.16" height="0.24"/>
            <rect x="3.7" y="21.12" width="35.16" height="0.24"/>
            <rect x="3.7" y="21.36" width="35.16" height="0.24"/>
            <rect x="3.7" y="21.6" width="35.16" height="0.24"/>
            <rect x="3.7" y="21.84" width="35.16" height="0.24"/>
            <rect x="3.7" y="22.08" width="35.16" height="0.24"/>
            <rect x="3.7" y="22.32" width="35.16" height="0.24"/>
            <rect x="3.7" y="22.56" width="35.16" height="0.24"/>
            <rect x="3.7" y="22.8" width="35.16" height="0.24"/>
            <rect x="3.7" y="23.04" width="35.16" height="0.24"/>
            <rect x="3.7" y="23.28" width="35.16" height="0.24"/>
            <rect x="3.7" y="23.52" width="35.16" height="0.24"/>
            <rect x="3.7" y="23.76" width="35.16" height="0.24"/>
            <rect x="3.7" y="24" width="35.16" height="0.24"/>
            <rect x="3.7" y="24.24" width="35.16" height="0.24"/>
            <rect x="3.7" y="24.48" width="35.16" height="0.24"/>
            <rect x="3.7" y="24.72" width="35.16" height="0.24"/>
            <rect x="3.7" y="24.96" width="35.16" height="0.24"/>
            <rect x="3.7" y="25.2" width="35.16" height="0.24"/>
            <rect x="3.7" y="25.44" width="35.16" height="0.23"/>
          </g>
        </g>
      </g>
      <g id="cc49b933-4a34-4711-8ccd-01757b167ea5" data-name="&lt;Grupo&gt;">
        <g>
          <path d="M3.7,26.93v2.51A1.26,1.26,0,0,0,5,30.7H37.6a1.26,1.26,0,0,0,1.26-1.26V26.93Zm33.9,5H5a2.51,2.51,0,0,1-2.52-2.51V26.3a.64.64,0,0,1,.63-.63H39.49a.63.63,0,0,1,.62.63v3.14A2.51,2.51,0,0,1,37.6,32Z"/>
          <g class="d325167a-5398-471c-9967-3ad3174cbabd">
            <rect x="2.44" y="25.67" width="37.67" height="0.01"/>
            <rect x="2.44" y="25.68" width="37.67" height="0.24"/>
            <rect x="2.44" y="25.92" width="37.67" height="0.24"/>
            <rect x="2.44" y="26.16" width="37.67" height="0.24"/>
            <rect x="2.44" y="26.4" width="37.67" height="0.24"/>
            <rect x="2.44" y="26.64" width="37.67" height="0.24"/>
            <rect x="2.44" y="26.88" width="37.67" height="0.24"/>
            <rect x="2.44" y="27.12" width="37.67" height="0.24"/>
            <rect x="2.44" y="27.36" width="37.67" height="0.24"/>
            <rect x="2.44" y="27.6" width="37.67" height="0.24"/>
            <rect x="2.44" y="27.84" width="37.67" height="0.24"/>
            <rect x="2.44" y="28.09" width="37.67" height="0.24"/>
            <rect x="2.44" y="28.33" width="37.67" height="0.24"/>
            <rect x="2.44" y="28.57" width="37.67" height="0.24"/>
            <rect x="2.44" y="28.81" width="37.67" height="0.24"/>
            <rect x="2.44" y="29.05" width="37.67" height="0.24"/>
            <rect x="2.44" y="29.29" width="37.67" height="0.24"/>
            <rect x="2.44" y="29.53" width="37.67" height="0.24"/>
            <rect x="2.44" y="29.77" width="37.67" height="0.24"/>
            <rect x="2.44" y="30.01" width="37.67" height="0.24"/>
            <rect x="2.44" y="30.25" width="37.67" height="0.24"/>
            <rect x="2.44" y="30.49" width="37.67" height="0.24"/>
            <rect x="2.44" y="30.73" width="37.67" height="0.24"/>
            <rect x="2.44" y="30.97" width="37.67" height="0.24"/>
            <rect x="2.44" y="31.21" width="37.67" height="0.24"/>
            <rect x="2.44" y="31.45" width="37.67" height="0.24"/>
            <rect x="2.44" y="31.69" width="37.67" height="0.24"/>
            <rect x="2.44" y="31.93" width="37.67" height="0.02"/>
            <rect x="3.7" y="26.93" width="35.16" height="0.19"/>
            <rect x="3.7" y="27.12" width="35.16" height="0.24"/>
            <rect x="3.7" y="27.36" width="35.16" height="0.24"/>
            <rect x="3.7" y="27.6" width="35.16" height="0.24"/>
            <rect x="3.7" y="27.84" width="35.16" height="0.24"/>
            <rect x="3.7" y="28.09" width="35.16" height="0.24"/>
            <rect x="3.7" y="28.33" width="35.16" height="0.24"/>
            <rect x="3.7" y="28.57" width="35.16" height="0.24"/>
            <rect x="3.7" y="28.81" width="35.16" height="0.24"/>
            <rect x="3.7" y="29.05" width="35.16" height="0.24"/>
            <rect x="3.7" y="29.29" width="35.16" height="0.24"/>
            <rect x="3.7" y="29.53" width="35.16" height="0.24"/>
            <rect x="3.7" y="29.77" width="35.16" height="0.24"/>
            <rect x="3.7" y="30.01" width="35.16" height="0.24"/>
            <rect x="3.7" y="30.25" width="35.16" height="0.24"/>
            <rect x="3.7" y="30.49" width="35.16" height="0.21"/>
          </g>
        </g>
      </g>
      <g id="f390efa2-8f5a-4a1d-8e5e-e8a2fd6b028d" data-name="&lt;Grupo&gt;">
        <g>
          <path d="M23.16,29.44H19.4a.63.63,0,1,1,0-1.25h3.76a.63.63,0,1,1,0,1.25Z"/>
          <g class="c9046aae-36e3-4004-b807-ec41ef665429">
            <rect x="18.77" y="28.19" width="5.02" height="0.14"/>
            <rect x="18.77" y="28.33" width="5.02" height="0.24"/>
            <rect x="18.77" y="28.57" width="5.02" height="0.24"/>
            <rect x="18.77" y="28.81" width="5.02" height="0.24"/>
            <rect x="18.77" y="29.05" width="5.02" height="0.24"/>
            <rect x="18.77" y="29.29" width="5.02" height="0.16"/>
          </g>
        </g>
      </g>
      <g id="b9ecb5b4-b7b1-4520-b041-e83c144f6214" data-name="&lt;Grupo&gt;">
        <g>
          <path d="M6.21,25.67H36.35V6.84H6.21V25.67ZM37,26.93H5.58A.63.63,0,0,1,5,26.3V6.21a.63.63,0,0,1,.62-.63H37a.63.63,0,0,1,.62.63V26.3a.63.63,0,0,1-.62.63Z"/>
          <g class="e0dbb0b7-e53e-40b9-b49c-516c88d080ae">
            <rect x="4.96" y="5.58" width="32.65" height="0.16"/>
            <rect x="4.96" y="5.75" width="32.65" height="0.24"/>
            <rect x="4.96" y="5.99" width="32.65" height="0.24"/>
            <rect x="4.96" y="6.23" width="32.65" height="0.24"/>
            <rect x="4.96" y="6.47" width="32.65" height="0.24"/>
            <rect x="4.96" y="6.71" width="32.65" height="0.24"/>
            <rect x="4.96" y="6.95" width="32.65" height="0.24"/>
            <rect x="4.96" y="7.19" width="32.65" height="0.24"/>
            <rect x="4.96" y="7.43" width="32.65" height="0.24"/>
            <rect x="4.96" y="7.67" width="32.65" height="0.24"/>
            <rect x="4.96" y="7.91" width="32.65" height="0.24"/>
            <rect x="4.96" y="8.15" width="32.65" height="0.24"/>
            <rect x="4.96" y="8.39" width="32.65" height="0.24"/>
            <rect x="4.96" y="8.63" width="32.65" height="0.24"/>
            <rect x="4.96" y="8.87" width="32.65" height="0.24"/>
            <rect x="4.96" y="9.11" width="32.65" height="0.24"/>
            <rect x="4.96" y="9.35" width="32.65" height="0.24"/>
            <rect x="4.96" y="9.59" width="32.65" height="0.24"/>
            <rect x="4.96" y="9.83" width="32.65" height="0.24"/>
            <rect x="4.96" y="10.07" width="32.65" height="0.24"/>
            <rect x="4.96" y="10.31" width="32.65" height="0.24"/>
            <rect x="4.96" y="10.55" width="32.65" height="0.24"/>
            <rect x="4.96" y="10.79" width="32.65" height="0.24"/>
            <rect x="4.96" y="11.03" width="32.65" height="0.24"/>
            <rect x="4.96" y="11.27" width="32.65" height="0.24"/>
            <rect x="4.96" y="11.51" width="32.65" height="0.24"/>
            <rect x="4.96" y="11.75" width="32.65" height="0.24"/>
            <rect x="4.96" y="11.99" width="32.65" height="0.24"/>
            <rect x="4.96" y="12.23" width="32.65" height="0.24"/>
            <rect x="4.96" y="12.47" width="32.65" height="0.24"/>
            <rect x="4.96" y="12.71" width="32.65" height="0.24"/>
            <rect x="4.96" y="12.95" width="32.65" height="0.24"/>
            <rect x="4.96" y="13.19" width="32.65" height="0.24"/>
            <rect x="4.96" y="13.43" width="32.65" height="0.24"/>
            <rect x="4.96" y="13.67" width="32.65" height="0.24"/>
            <rect x="4.96" y="13.91" width="32.65" height="0.24"/>
            <rect x="4.96" y="14.15" width="32.65" height="0.24"/>
            <rect x="4.96" y="14.39" width="32.65" height="0.24"/>
            <rect x="4.96" y="14.63" width="32.65" height="0.24"/>
            <rect x="4.96" y="14.87" width="32.65" height="0.24"/>
            <rect x="4.96" y="15.11" width="32.65" height="0.24"/>
            <rect x="4.96" y="15.35" width="32.65" height="0.24"/>
            <rect x="4.96" y="15.59" width="32.65" height="0.24"/>
            <rect x="4.96" y="15.83" width="32.65" height="0.24"/>
            <rect x="4.96" y="16.07" width="32.65" height="0.24"/>
            <rect x="4.96" y="16.31" width="32.65" height="0.24"/>
            <rect x="4.96" y="16.55" width="32.65" height="0.24"/>
            <rect x="4.96" y="16.8" width="32.65" height="0.24"/>
            <rect x="4.96" y="17.04" width="32.65" height="0.24"/>
            <rect x="4.96" y="17.28" width="32.65" height="0.24"/>
            <rect x="4.96" y="17.52" width="32.65" height="0.24"/>
            <rect x="4.96" y="17.76" width="32.65" height="0.24"/>
            <rect x="4.96" y="18" width="32.65" height="0.24"/>
            <rect x="4.96" y="18.24" width="32.65" height="0.24"/>
            <rect x="4.96" y="18.48" width="32.65" height="0.24"/>
            <rect x="4.96" y="18.72" width="32.65" height="0.24"/>
            <rect x="4.96" y="18.96" width="32.65" height="0.24"/>
            <rect x="4.96" y="19.2" width="32.65" height="0.24"/>
            <rect x="4.96" y="19.44" width="32.65" height="0.24"/>
            <rect x="4.96" y="19.68" width="32.65" height="0.24"/>
            <rect x="4.96" y="19.92" width="32.65" height="0.24"/>
            <rect x="4.96" y="20.16" width="32.65" height="0.24"/>
            <rect x="4.96" y="20.4" width="32.65" height="0.24"/>
            <rect x="4.96" y="20.64" width="32.65" height="0.24"/>
            <rect x="4.96" y="20.88" width="32.65" height="0.24"/>
            <rect x="4.96" y="21.12" width="32.65" height="0.24"/>
            <rect x="4.96" y="21.36" width="32.65" height="0.24"/>
            <rect x="4.96" y="21.6" width="32.65" height="0.24"/>
            <rect x="4.96" y="21.84" width="32.65" height="0.24"/>
            <rect x="4.96" y="22.08" width="32.65" height="0.24"/>
            <rect x="4.96" y="22.32" width="32.65" height="0.24"/>
            <rect x="4.96" y="22.56" width="32.65" height="0.24"/>
            <rect x="4.96" y="22.8" width="32.65" height="0.24"/>
            <rect x="4.96" y="23.04" width="32.65" height="0.24"/>
            <rect x="4.96" y="23.28" width="32.65" height="0.24"/>
            <rect x="4.96" y="23.52" width="32.65" height="0.24"/>
            <rect x="4.96" y="23.76" width="32.65" height="0.24"/>
            <rect x="4.96" y="24" width="32.65" height="0.24"/>
            <rect x="4.96" y="24.24" width="32.65" height="0.24"/>
            <rect x="4.96" y="24.48" width="32.65" height="0.24"/>
            <rect x="4.96" y="24.72" width="32.65" height="0.24"/>
            <rect x="4.96" y="24.96" width="32.65" height="0.24"/>
            <rect x="4.96" y="25.2" width="32.65" height="0.24"/>
            <rect x="4.96" y="25.44" width="32.65" height="0.24"/>
            <rect x="4.96" y="25.68" width="32.65" height="0.24"/>
            <rect x="4.96" y="25.92" width="32.65" height="0.24"/>
            <rect x="4.96" y="26.16" width="32.65" height="0.24"/>
            <rect x="4.96" y="26.4" width="32.65" height="0.24"/>
            <rect x="4.96" y="26.64" width="32.65" height="0.24"/>
            <rect x="4.96" y="26.88" width="32.65" height="0.05"/>
            <rect x="6.21" y="6.84" width="30.14" height="0.11"/>
            <rect x="6.21" y="6.95" width="30.14" height="0.24"/>
            <rect x="6.21" y="7.19" width="30.14" height="0.24"/>
            <rect x="6.21" y="7.43" width="30.14" height="0.24"/>
            <rect x="6.21" y="7.67" width="30.14" height="0.24"/>
            <rect x="6.21" y="7.91" width="30.14" height="0.24"/>
            <rect x="6.21" y="8.15" width="30.14" height="0.24"/>
            <rect x="6.21" y="8.39" width="30.14" height="0.24"/>
            <rect x="6.21" y="8.63" width="30.14" height="0.24"/>
            <rect x="6.21" y="8.87" width="30.14" height="0.24"/>
            <rect x="6.21" y="9.11" width="30.14" height="0.24"/>
            <rect x="6.21" y="9.35" width="30.14" height="0.24"/>
            <rect x="6.21" y="9.59" width="30.14" height="0.24"/>
            <rect x="6.21" y="9.83" width="30.14" height="0.24"/>
            <rect x="6.21" y="10.07" width="30.14" height="0.24"/>
            <rect x="6.21" y="10.31" width="30.14" height="0.24"/>
            <rect x="6.21" y="10.55" width="30.14" height="0.24"/>
            <rect x="6.21" y="10.79" width="30.14" height="0.24"/>
            <rect x="6.21" y="11.03" width="30.14" height="0.24"/>
            <rect x="6.21" y="11.27" width="30.14" height="0.24"/>
            <rect x="6.21" y="11.51" width="30.14" height="0.24"/>
            <rect x="6.21" y="11.75" width="30.14" height="0.24"/>
            <rect x="6.21" y="11.99" width="30.14" height="0.24"/>
            <rect x="6.21" y="12.23" width="30.14" height="0.24"/>
            <rect x="6.21" y="12.47" width="30.14" height="0.24"/>
            <rect x="6.21" y="12.71" width="30.14" height="0.24"/>
            <rect x="6.21" y="12.95" width="30.14" height="0.24"/>
            <rect x="6.21" y="13.19" width="30.14" height="0.24"/>
            <rect x="6.21" y="13.43" width="30.14" height="0.24"/>
            <rect x="6.21" y="13.67" width="30.14" height="0.24"/>
            <rect x="6.21" y="13.91" width="30.14" height="0.24"/>
            <rect x="6.21" y="14.15" width="30.14" height="0.24"/>
            <rect x="6.21" y="14.39" width="30.14" height="0.24"/>
            <rect x="6.21" y="14.63" width="30.14" height="0.24"/>
            <rect x="6.21" y="14.87" width="30.14" height="0.24"/>
            <rect x="6.21" y="15.11" width="30.14" height="0.24"/>
            <rect x="6.21" y="15.35" width="30.14" height="0.24"/>
            <rect x="6.21" y="15.59" width="30.14" height="0.24"/>
            <rect x="6.21" y="15.83" width="30.14" height="0.24"/>
            <rect x="6.21" y="16.07" width="30.14" height="0.24"/>
            <rect x="6.21" y="16.31" width="30.14" height="0.24"/>
            <rect x="6.21" y="16.55" width="30.14" height="0.24"/>
            <rect x="6.21" y="16.8" width="30.14" height="0.24"/>
            <rect x="6.21" y="17.04" width="30.14" height="0.24"/>
            <rect x="6.21" y="17.28" width="30.14" height="0.24"/>
            <rect x="6.21" y="17.52" width="30.14" height="0.24"/>
            <rect x="6.21" y="17.76" width="30.14" height="0.24"/>
            <rect x="6.21" y="18" width="30.14" height="0.24"/>
            <rect x="6.21" y="18.24" width="30.14" height="0.24"/>
            <rect x="6.21" y="18.48" width="30.14" height="0.24"/>
            <rect x="6.21" y="18.72" width="30.14" height="0.24"/>
            <rect x="6.21" y="18.96" width="30.14" height="0.24"/>
            <rect x="6.21" y="19.2" width="30.14" height="0.24"/>
            <rect x="6.21" y="19.44" width="30.14" height="0.24"/>
            <rect x="6.21" y="19.68" width="30.14" height="0.24"/>
            <rect x="6.21" y="19.92" width="30.14" height="0.24"/>
            <rect x="6.21" y="20.16" width="30.14" height="0.24"/>
            <rect x="6.21" y="20.4" width="30.14" height="0.24"/>
            <rect x="6.21" y="20.64" width="30.14" height="0.24"/>
            <rect x="6.21" y="20.88" width="30.14" height="0.24"/>
            <rect x="6.21" y="21.12" width="30.14" height="0.24"/>
            <rect x="6.21" y="21.36" width="30.14" height="0.24"/>
            <rect x="6.21" y="21.6" width="30.14" height="0.24"/>
            <rect x="6.21" y="21.84" width="30.14" height="0.24"/>
            <rect x="6.21" y="22.08" width="30.14" height="0.24"/>
            <rect x="6.21" y="22.32" width="30.14" height="0.24"/>
            <rect x="6.21" y="22.56" width="30.14" height="0.24"/>
            <rect x="6.21" y="22.8" width="30.14" height="0.24"/>
            <rect x="6.21" y="23.04" width="30.14" height="0.24"/>
            <rect x="6.21" y="23.28" width="30.14" height="0.24"/>
            <rect x="6.21" y="23.52" width="30.14" height="0.24"/>
            <rect x="6.21" y="23.76" width="30.14" height="0.24"/>
            <rect x="6.21" y="24" width="30.14" height="0.24"/>
            <rect x="6.21" y="24.24" width="30.14" height="0.24"/>
            <rect x="6.21" y="24.48" width="30.14" height="0.24"/>
            <rect x="6.21" y="24.72" width="30.14" height="0.24"/>
            <rect x="6.21" y="24.96" width="30.14" height="0.24"/>
            <rect x="6.21" y="25.2" width="30.14" height="0.24"/>
            <rect x="6.21" y="25.44" width="30.14" height="0.23"/>
          </g>
        </g>
      </g>
      <g id="55a28786-bf4c-43f0-8e2f-2422df91a82a" data-name="&lt;Grupo&gt;">
        <g>
          <path d="M13.12,37a.63.63,0,1,0,0,1.25H29.44a.63.63,0,1,0,0-1.25Zm16.32,2.51H13.12a1.89,1.89,0,1,1,0-3.77H29.44a1.89,1.89,0,1,1,0,3.77Z"/>
          <g class="bae15254-e9f0-4ad9-99ab-e77468fe93b8">
            <rect x="11.23" y="35.72" width="20.09" height="0.05"/>
            <rect x="11.23" y="35.77" width="20.09" height="0.24"/>
            <rect x="11.23" y="36.01" width="20.09" height="0.24"/>
            <rect x="11.23" y="36.25" width="20.09" height="0.24"/>
            <rect x="11.23" y="36.49" width="20.09" height="0.24"/>
            <rect x="11.23" y="36.73" width="20.09" height="0.24"/>
            <rect x="11.23" y="36.97" width="20.09" height="0.24"/>
            <rect x="11.23" y="37.21" width="20.09" height="0.24"/>
            <rect x="11.23" y="37.45" width="20.09" height="0.24"/>
            <rect x="11.23" y="37.69" width="20.09" height="0.24"/>
            <rect x="11.23" y="37.93" width="20.09" height="0.24"/>
            <rect x="11.23" y="38.17" width="20.09" height="0.24"/>
            <rect x="11.23" y="38.41" width="20.09" height="0.24"/>
            <rect x="11.23" y="38.65" width="20.09" height="0.24"/>
            <rect x="11.23" y="38.89" width="20.09" height="0.24"/>
            <rect x="11.23" y="39.13" width="20.09" height="0.24"/>
            <rect x="11.23" y="39.38" width="20.09" height="0.11"/>
            <rect x="12.49" y="36.98" width="17.58" height="0.24"/>
            <rect x="12.49" y="37.21" width="17.58" height="0.24"/>
            <rect x="12.49" y="37.45" width="17.58" height="0.24"/>
            <rect x="12.49" y="37.69" width="17.58" height="0.24"/>
            <rect x="12.49" y="37.93" width="17.58" height="0.24"/>
            <rect x="12.49" y="38.17" width="17.58" height="0.06"/>
          </g>
        </g>
      </g>
      <g id="57cac1ff-45c3-48c6-b9ed-3e082c912818" data-name="&lt;Grupo&gt;">
        <g>
          <path d="M17.43,35.72h7.7A6,6,0,0,1,23.81,32H18.75a6,6,0,0,1-1.32,3.77ZM28.19,37H14.37a.63.63,0,0,1-.62-.63.63.63,0,0,1,.62-.63c2.09,0,3.14-1.48,3.14-4.39a.63.63,0,0,1,.63-.63h6.28a.63.63,0,0,1,.63.63c0,2.91,1.05,4.39,3.14,4.39a.63.63,0,0,1,.62.63.63.63,0,0,1-.62.63Z"/>
          <g class="f9e97999-3d19-4e40-bf7a-0c150c0062d1">
            <rect x="13.75" y="30.7" width="15.07" height="0.03"/>
            <rect x="13.75" y="30.73" width="15.07" height="0.24"/>
            <rect x="13.75" y="30.97" width="15.07" height="0.24"/>
            <rect x="13.75" y="31.21" width="15.07" height="0.24"/>
            <rect x="13.75" y="31.45" width="15.07" height="0.24"/>
            <rect x="13.75" y="31.69" width="15.07" height="0.24"/>
            <rect x="13.75" y="31.93" width="15.07" height="0.24"/>
            <rect x="13.75" y="32.17" width="15.07" height="0.24"/>
            <rect x="13.75" y="32.41" width="15.07" height="0.24"/>
            <rect x="13.75" y="32.65" width="15.07" height="0.24"/>
            <rect x="13.75" y="32.89" width="15.07" height="0.24"/>
            <rect x="13.75" y="33.13" width="15.07" height="0.24"/>
            <rect x="13.75" y="33.37" width="15.07" height="0.24"/>
            <rect x="13.75" y="33.61" width="15.07" height="0.24"/>
            <rect x="13.75" y="33.85" width="15.07" height="0.24"/>
            <rect x="13.75" y="34.09" width="15.07" height="0.24"/>
            <rect x="13.75" y="34.33" width="15.07" height="0.24"/>
            <rect x="13.75" y="34.57" width="15.07" height="0.24"/>
            <rect x="13.75" y="34.81" width="15.07" height="0.24"/>
            <rect x="13.75" y="35.05" width="15.07" height="0.24"/>
            <rect x="13.75" y="35.29" width="15.07" height="0.24"/>
            <rect x="13.75" y="35.53" width="15.07" height="0.24"/>
            <rect x="13.75" y="35.77" width="15.07" height="0.24"/>
            <rect x="13.75" y="36.01" width="15.07" height="0.24"/>
            <rect x="13.75" y="36.25" width="15.07" height="0.24"/>
            <rect x="13.75" y="36.49" width="15.07" height="0.24"/>
            <rect x="13.75" y="36.73" width="15.07" height="0.24"/>
            <rect x="13.75" y="36.97" width="15.07"/>
            <rect x="17.43" y="31.95" width="7.7" height="0.22"/>
            <rect x="17.43" y="32.17" width="7.7" height="0.24"/>
            <rect x="17.43" y="32.41" width="7.7" height="0.24"/>
            <rect x="17.43" y="32.65" width="7.7" height="0.24"/>
            <rect x="17.43" y="32.89" width="7.7" height="0.24"/>
            <rect x="17.43" y="33.13" width="7.7" height="0.24"/>
            <rect x="17.43" y="33.37" width="7.7" height="0.24"/>
            <rect x="17.43" y="33.61" width="7.7" height="0.24"/>
            <rect x="17.43" y="33.85" width="7.7" height="0.24"/>
            <rect x="17.43" y="34.09" width="7.7" height="0.24"/>
            <rect x="17.43" y="34.33" width="7.7" height="0.24"/>
            <rect x="17.43" y="34.57" width="7.7" height="0.24"/>
            <rect x="17.43" y="34.81" width="7.7" height="0.24"/>
            <rect x="17.43" y="35.05" width="7.7" height="0.24"/>
            <rect x="17.43" y="35.29" width="7.7" height="0.24"/>
            <rect x="17.43" y="35.53" width="7.7" height="0.19"/>
          </g>
        </g>
      </g>
      <g id="c1805f38-e8c5-443e-8138-68d3a5945cf7" data-name="&lt;Grupo&gt;">
        <g>
          <path d="M28.27,21.28a.82.82,0,0,1,.58.24l1.38,1.38.88-.89-1.45-1.45a.67.67,0,0,1-.21-.5.71.71,0,0,1,.21-.51l.48-.48L26,17.82,27.23,22l.46-.46a.82.82,0,0,1,.58-.24Zm2,3.14a.64.64,0,0,1-.45-.19l-1.51-1.51-.89.89a.64.64,0,0,1-.6.16.63.63,0,0,1-.45-.43l-1.88-6.27a.61.61,0,0,1,.16-.63.64.64,0,0,1,.62-.16l6.28,1.89a.63.63,0,0,1,.43.44.63.63,0,0,1-.17.6l-.84.85,1.52,1.51a.64.64,0,0,1,0,.89l-1.78,1.77a.63.63,0,0,1-.44.19Z"/>
          <g class="ef140e45-0203-4f66-81d3-6b2cd3f6f5e9">
            <rect x="24.38" y="16.22" width="8.31" height="0.1"/>
            <rect x="24.38" y="16.31" width="8.31" height="0.24"/>
            <rect x="24.38" y="16.55" width="8.31" height="0.24"/>
            <rect x="24.38" y="16.8" width="8.31" height="0.24"/>
            <rect x="24.38" y="17.04" width="8.31" height="0.24"/>
            <rect x="24.38" y="17.28" width="8.31" height="0.24"/>
            <rect x="24.38" y="17.52" width="8.31" height="0.24"/>
            <rect x="24.38" y="17.76" width="8.31" height="0.24"/>
            <rect x="24.38" y="18" width="8.31" height="0.24"/>
            <rect x="24.38" y="18.24" width="8.31" height="0.24"/>
            <rect x="24.38" y="18.48" width="8.31" height="0.24"/>
            <rect x="24.38" y="18.72" width="8.31" height="0.24"/>
            <rect x="24.38" y="18.96" width="8.31" height="0.24"/>
            <rect x="24.38" y="19.2" width="8.31" height="0.24"/>
            <rect x="24.38" y="19.44" width="8.31" height="0.24"/>
            <rect x="24.38" y="19.68" width="8.31" height="0.24"/>
            <rect x="24.38" y="19.92" width="8.31" height="0.24"/>
            <rect x="24.38" y="20.16" width="8.31" height="0.24"/>
            <rect x="24.38" y="20.4" width="8.31" height="0.24"/>
            <rect x="24.38" y="20.64" width="8.31" height="0.24"/>
            <rect x="24.38" y="20.88" width="8.31" height="0.24"/>
            <rect x="24.38" y="21.12" width="8.31" height="0.24"/>
            <rect x="24.38" y="21.36" width="8.31" height="0.24"/>
            <rect x="24.38" y="21.6" width="8.31" height="0.24"/>
            <rect x="24.38" y="21.84" width="8.31" height="0.24"/>
            <rect x="24.38" y="22.08" width="8.31" height="0.24"/>
            <rect x="24.38" y="22.32" width="8.31" height="0.24"/>
            <rect x="24.38" y="22.56" width="8.31" height="0.24"/>
            <rect x="24.38" y="22.8" width="8.31" height="0.24"/>
            <rect x="24.38" y="23.04" width="8.31" height="0.24"/>
            <rect x="24.38" y="23.28" width="8.31" height="0.24"/>
            <rect x="24.38" y="23.52" width="8.31" height="0.24"/>
            <rect x="24.38" y="23.76" width="8.31" height="0.24"/>
            <rect x="24.38" y="24" width="8.31" height="0.24"/>
            <rect x="24.38" y="24.24" width="8.31" height="0.18"/>
            <rect x="25.99" y="17.82" width="5.13" height="0.18"/>
            <rect x="25.99" y="18" width="5.13" height="0.24"/>
            <rect x="25.99" y="18.24" width="5.13" height="0.24"/>
            <rect x="25.99" y="18.48" width="5.13" height="0.24"/>
            <rect x="25.99" y="18.72" width="5.13" height="0.24"/>
            <rect x="25.99" y="18.96" width="5.13" height="0.24"/>
            <rect x="25.99" y="19.2" width="5.13" height="0.24"/>
            <rect x="25.99" y="19.44" width="5.13" height="0.24"/>
            <rect x="25.99" y="19.68" width="5.13" height="0.24"/>
            <rect x="25.99" y="19.92" width="5.13" height="0.24"/>
            <rect x="25.99" y="20.16" width="5.13" height="0.24"/>
            <rect x="25.99" y="20.4" width="5.13" height="0.24"/>
            <rect x="25.99" y="20.64" width="5.13" height="0.24"/>
            <rect x="25.99" y="20.88" width="5.13" height="0.24"/>
            <rect x="25.99" y="21.12" width="5.13" height="0.24"/>
            <rect x="25.99" y="21.36" width="5.13" height="0.24"/>
            <rect x="25.99" y="21.6" width="5.13" height="0.24"/>
            <rect x="25.99" y="21.84" width="5.13" height="0.24"/>
            <rect x="25.99" y="22.08" width="5.13" height="0.24"/>
            <rect x="25.99" y="22.32" width="5.13" height="0.24"/>
            <rect x="25.99" y="22.56" width="5.13" height="0.24"/>
            <rect x="25.99" y="22.8" width="5.13" height="0.1"/>
          </g>
        </g>
      </g>
      <g id="bfabf90c-5f34-4b4c-b4e6-92c4364fd8ce" data-name="&lt;Grupo&gt;">
        <g>
          <path d="M11.86,11.23H28.19V9.35H11.86v1.88Zm17,1.26H11.23a.63.63,0,0,1-.62-.63V8.72a.62.62,0,0,1,.62-.62H28.81a.63.63,0,0,1,.63.62v3.14a.63.63,0,0,1-.63.63Z"/>
          <g class="2226e5e6-7535-411a-8ceb-8b5afe248da1">
            <rect x="10.61" y="8.1" width="18.84" height="0.05"/>
            <rect x="10.61" y="8.15" width="18.84" height="0.24"/>
            <rect x="10.61" y="8.39" width="18.84" height="0.24"/>
            <rect x="10.61" y="8.63" width="18.84" height="0.24"/>
            <rect x="10.61" y="8.87" width="18.84" height="0.24"/>
            <rect x="10.61" y="9.11" width="18.84" height="0.24"/>
            <rect x="10.61" y="9.35" width="18.84" height="0.24"/>
            <rect x="10.61" y="9.59" width="18.84" height="0.24"/>
            <rect x="10.61" y="9.83" width="18.84" height="0.24"/>
            <rect x="10.61" y="10.07" width="18.84" height="0.24"/>
            <rect x="10.61" y="10.31" width="18.84" height="0.24"/>
            <rect x="10.61" y="10.55" width="18.84" height="0.24"/>
            <rect x="10.61" y="10.79" width="18.84" height="0.24"/>
            <rect x="10.61" y="11.03" width="18.84" height="0.24"/>
            <rect x="10.61" y="11.27" width="18.84" height="0.24"/>
            <rect x="10.61" y="11.51" width="18.84" height="0.24"/>
            <rect x="10.61" y="11.75" width="18.84" height="0.24"/>
            <rect x="10.61" y="11.99" width="18.84" height="0.24"/>
            <rect x="10.61" y="12.23" width="18.84" height="0.24"/>
            <rect x="10.61" y="12.47" width="18.84" height="0.02"/>
            <rect x="11.86" y="9.35" width="16.32" height="0.24"/>
            <rect x="11.86" y="9.59" width="16.32" height="0.24"/>
            <rect x="11.86" y="9.83" width="16.32" height="0.24"/>
            <rect x="11.86" y="10.07" width="16.32" height="0.24"/>
            <rect x="11.86" y="10.31" width="16.32" height="0.24"/>
            <rect x="11.86" y="10.55" width="16.32" height="0.24"/>
            <rect x="11.86" y="10.79" width="16.32" height="0.24"/>
            <rect x="11.86" y="11.03" width="16.32" height="0.2"/>
          </g>
        </g>
      </g>
      <g id="354912be-ddf2-4dd8-9c62-fdddadc8cedd" data-name="&lt;Grupo&gt;">
        <g>
          <path d="M14.37,17.51h3.77V16.26H14.37v1.25Zm4.4,1.26h-5a.63.63,0,0,1-.63-.63V15.63a.63.63,0,0,1,.63-.63h5a.63.63,0,0,1,.63.63v2.51a.63.63,0,0,1-.63.63Z"/>
          <g class="615913a4-3b6c-44b4-a747-7614866f5746">
            <rect x="13.12" y="15" width="6.28" height="0.11"/>
            <rect x="13.12" y="15.11" width="6.28" height="0.24"/>
            <rect x="13.12" y="15.35" width="6.28" height="0.24"/>
            <rect x="13.12" y="15.59" width="6.28" height="0.24"/>
            <rect x="13.12" y="15.83" width="6.28" height="0.24"/>
            <rect x="13.12" y="16.07" width="6.28" height="0.24"/>
            <rect x="13.12" y="16.31" width="6.28" height="0.24"/>
            <rect x="13.12" y="16.55" width="6.28" height="0.24"/>
            <rect x="13.12" y="16.8" width="6.28" height="0.24"/>
            <rect x="13.12" y="17.04" width="6.28" height="0.24"/>
            <rect x="13.12" y="17.28" width="6.28" height="0.24"/>
            <rect x="13.12" y="17.52" width="6.28" height="0.24"/>
            <rect x="13.12" y="17.76" width="6.28" height="0.24"/>
            <rect x="13.12" y="18" width="6.28" height="0.24"/>
            <rect x="13.12" y="18.24" width="6.28" height="0.24"/>
            <rect x="13.12" y="18.48" width="6.28" height="0.24"/>
            <rect x="13.12" y="18.72" width="6.28" height="0.05"/>
            <rect x="14.37" y="16.26" width="3.77" height="0.06"/>
            <rect x="14.37" y="16.31" width="3.77" height="0.24"/>
            <rect x="14.37" y="16.55" width="3.77" height="0.24"/>
            <rect x="14.37" y="16.8" width="3.77" height="0.24"/>
            <rect x="14.37" y="17.04" width="3.77" height="0.24"/>
            <rect x="14.37" y="17.28" width="3.77" height="0.24"/>
          </g>
        </g>
      </g>
      <g id="dd813352-d940-451c-9a04-cb01841d0b89" data-name="&lt;Grupo&gt;">
        <g>
          <path d="M11.86,20H25.34l-.89-2.95a.61.61,0,0,1,.16-.63.64.64,0,0,1,.62-.16l3,.89V9.35H11.86V20Zm14.32,1.26H11.23a.63.63,0,0,1-.62-.63V8.72a.62.62,0,0,1,.62-.62H28.81a.63.63,0,0,1,.63.62V18a.63.63,0,0,1-.25.51.66.66,0,0,1-.56.1L26,17.82l.79,2.65a.63.63,0,0,1-.1.56.6.6,0,0,1-.5.25Z"/>
          <g class="e448153f-d95c-46f3-9a1b-ce7d0abe6e1d">
            <rect x="10.61" y="8.1" width="18.84" height="0.05"/>
            <rect x="10.61" y="8.15" width="18.84" height="0.24"/>
            <rect x="10.61" y="8.39" width="18.84" height="0.24"/>
            <rect x="10.61" y="8.63" width="18.84" height="0.24"/>
            <rect x="10.61" y="8.87" width="18.84" height="0.24"/>
            <rect x="10.61" y="9.11" width="18.84" height="0.24"/>
            <rect x="10.61" y="9.35" width="18.84" height="0.24"/>
            <rect x="10.61" y="9.59" width="18.84" height="0.24"/>
            <rect x="10.61" y="9.83" width="18.84" height="0.24"/>
            <rect x="10.61" y="10.07" width="18.84" height="0.24"/>
            <rect x="10.61" y="10.31" width="18.84" height="0.24"/>
            <rect x="10.61" y="10.55" width="18.84" height="0.24"/>
            <rect x="10.61" y="10.79" width="18.84" height="0.24"/>
            <rect x="10.61" y="11.03" width="18.84" height="0.24"/>
            <rect x="10.61" y="11.27" width="18.84" height="0.24"/>
            <rect x="10.61" y="11.51" width="18.84" height="0.24"/>
            <rect x="10.61" y="11.75" width="18.84" height="0.24"/>
            <rect x="10.61" y="11.99" width="18.84" height="0.24"/>
            <rect x="10.61" y="12.23" width="18.84" height="0.24"/>
            <rect x="10.61" y="12.47" width="18.84" height="0.24"/>
            <rect x="10.61" y="12.71" width="18.84" height="0.24"/>
            <rect x="10.61" y="12.95" width="18.84" height="0.24"/>
            <rect x="10.61" y="13.19" width="18.84" height="0.24"/>
            <rect x="10.61" y="13.43" width="18.84" height="0.24"/>
            <rect x="10.61" y="13.67" width="18.84" height="0.24"/>
            <rect x="10.61" y="13.91" width="18.84" height="0.24"/>
            <rect x="10.61" y="14.15" width="18.84" height="0.24"/>
            <rect x="10.61" y="14.39" width="18.84" height="0.24"/>
            <rect x="10.61" y="14.63" width="18.84" height="0.24"/>
            <rect x="10.61" y="14.87" width="18.84" height="0.24"/>
            <rect x="10.61" y="15.11" width="18.84" height="0.24"/>
            <rect x="10.61" y="15.35" width="18.84" height="0.24"/>
            <rect x="10.61" y="15.59" width="18.84" height="0.24"/>
            <rect x="10.61" y="15.83" width="18.84" height="0.24"/>
            <rect x="10.61" y="16.07" width="18.84" height="0.24"/>
            <rect x="10.61" y="16.31" width="18.84" height="0.24"/>
            <rect x="10.61" y="16.55" width="18.84" height="0.24"/>
            <rect x="10.61" y="16.8" width="18.84" height="0.24"/>
            <rect x="10.61" y="17.04" width="18.84" height="0.24"/>
            <rect x="10.61" y="17.28" width="18.84" height="0.24"/>
            <rect x="10.61" y="17.52" width="18.84" height="0.24"/>
            <rect x="10.61" y="17.76" width="18.84" height="0.24"/>
            <rect x="10.61" y="18" width="18.84" height="0.24"/>
            <rect x="10.61" y="18.24" width="18.84" height="0.24"/>
            <rect x="10.61" y="18.48" width="18.84" height="0.24"/>
            <rect x="10.61" y="18.72" width="18.84" height="0.24"/>
            <rect x="10.61" y="18.96" width="18.84" height="0.24"/>
            <rect x="10.61" y="19.2" width="18.84" height="0.24"/>
            <rect x="10.61" y="19.44" width="18.84" height="0.24"/>
            <rect x="10.61" y="19.68" width="18.84" height="0.24"/>
            <rect x="10.61" y="19.92" width="18.84" height="0.24"/>
            <rect x="10.61" y="20.16" width="18.84" height="0.24"/>
            <rect x="10.61" y="20.4" width="18.84" height="0.24"/>
            <rect x="10.61" y="20.64" width="18.84" height="0.24"/>
            <rect x="10.61" y="20.88" width="18.84" height="0.24"/>
            <rect x="10.61" y="21.12" width="18.84" height="0.16"/>
            <rect x="11.86" y="9.35" width="16.32" height="0.24"/>
            <rect x="11.86" y="9.59" width="16.32" height="0.24"/>
            <rect x="11.86" y="9.83" width="16.32" height="0.24"/>
            <rect x="11.86" y="10.07" width="16.32" height="0.24"/>
            <rect x="11.86" y="10.31" width="16.32" height="0.24"/>
            <rect x="11.86" y="10.55" width="16.32" height="0.24"/>
            <rect x="11.86" y="10.79" width="16.32" height="0.24"/>
            <rect x="11.86" y="11.03" width="16.32" height="0.24"/>
            <rect x="11.86" y="11.27" width="16.32" height="0.24"/>
            <rect x="11.86" y="11.51" width="16.32" height="0.24"/>
            <rect x="11.86" y="11.75" width="16.32" height="0.24"/>
            <rect x="11.86" y="11.99" width="16.32" height="0.24"/>
            <rect x="11.86" y="12.23" width="16.32" height="0.24"/>
            <rect x="11.86" y="12.47" width="16.32" height="0.24"/>
            <rect x="11.86" y="12.71" width="16.32" height="0.24"/>
            <rect x="11.86" y="12.95" width="16.32" height="0.24"/>
            <rect x="11.86" y="13.19" width="16.32" height="0.24"/>
            <rect x="11.86" y="13.43" width="16.32" height="0.24"/>
            <rect x="11.86" y="13.67" width="16.32" height="0.24"/>
            <rect x="11.86" y="13.91" width="16.32" height="0.24"/>
            <rect x="11.86" y="14.15" width="16.32" height="0.24"/>
            <rect x="11.86" y="14.39" width="16.32" height="0.24"/>
            <rect x="11.86" y="14.63" width="16.32" height="0.24"/>
            <rect x="11.86" y="14.87" width="16.32" height="0.24"/>
            <rect x="11.86" y="15.11" width="16.32" height="0.24"/>
            <rect x="11.86" y="15.35" width="16.32" height="0.24"/>
            <rect x="11.86" y="15.59" width="16.32" height="0.24"/>
            <rect x="11.86" y="15.83" width="16.32" height="0.24"/>
            <rect x="11.86" y="16.07" width="16.32" height="0.24"/>
            <rect x="11.86" y="16.31" width="16.32" height="0.24"/>
            <rect x="11.86" y="16.55" width="16.32" height="0.24"/>
            <rect x="11.86" y="16.8" width="16.32" height="0.24"/>
            <rect x="11.86" y="17.04" width="16.32" height="0.24"/>
            <rect x="11.86" y="17.28" width="16.32" height="0.24"/>
            <rect x="11.86" y="17.52" width="16.32" height="0.24"/>
            <rect x="11.86" y="17.76" width="16.32" height="0.24"/>
            <rect x="11.86" y="18" width="16.32" height="0.24"/>
            <rect x="11.86" y="18.24" width="16.32" height="0.24"/>
            <rect x="11.86" y="18.48" width="16.32" height="0.24"/>
            <rect x="11.86" y="18.72" width="16.32" height="0.24"/>
            <rect x="11.86" y="18.96" width="16.32" height="0.24"/>
            <rect x="11.86" y="19.2" width="16.32" height="0.24"/>
            <rect x="11.86" y="19.44" width="16.32" height="0.24"/>
            <rect x="11.86" y="19.68" width="16.32" height="0.24"/>
            <rect x="11.86" y="19.92" width="16.32" height="0.11"/>
          </g>
        </g>
      </g>
    </g>
  </g>
</svg>
